Team 7 - EPL Football Results (Tidyverse)
…
Using colors for overlap in a rug plot is advantageous because it visually conveys the density of data points. When individual data points are represented with varying colors or transparency levels, areas where many points overlap become darker or show blended colors, effectively highlighting regions of high density. This method allows for a clear visual differentiation between sparsely and densely populated areas, making it easier for viewers to identify patterns, trends, and outliers within the dataset. Additionally, it enhances the readability of the plot without overcrowding it, which can happen with simple line overlays, thereby providing a more informative and aesthetically pleasing visualization.

Task 3: Visualizing Michelson’s Speed-of-Light Measurements

Albert A. Michelson (1882) published estimates of the speed of light obtained through a seminal experiment. The results (in km/s minus 299,000) are stored in R’s built-in morley data frame, which can be loaded into R’s global environment using the following line of code:

data(morley)
morley <- as_tibble(morley)
morley

# A tibble: 100 × 3
    Expt   Run Speed
   <int> <int> <int>
 1     1     1   850
 2     1     2   740
 3     1     3   900
 4     1     4  1070
 5     1     5   930
 6     1     6   850
 7     1     7   950
 8     1     8   980
 9     1     9   980
10     1    10   880
# ℹ 90 more rows
…
